Experimente in Psychopy | Robustheit
…
Die Testergebnisse können wir einfach mit einem Loop generieren, der über 16 Zahlen iteriert und zum Beispiel bei jeder geraden Zahl einen Erwartungswertunterschied und bei jeder ungeraden keinen simuliert. Die simulierten Daten legen wir dann alle in einer Liste ab.
Außerdem können wir auch schon für jeden Datensatz einen t-Test berechnen und ablegen, da wir eh Tabellen generiern wollen und für die Grafiken nur p brauchen, können wir auch gleich die von broom::tidy formatierten Ergebnisse ablegen.

out <- list()
for (i in seq_len(16)) {
  out[[i]] <- list(data = tibble(x = rnorm(100, 100, 15),
                                 y = rnorm(100, c(100, 110)[i %% 2 + 1], 15)))
  out[[i]]$test <- broom::tidy(with(out[[i]]$data,t.test(x,y)))
}

out[[1]]

## $data
## # A tibble: 100 × 2
##        x     y
##    <dbl> <dbl>
##  1  93.2 100. 
##  2  78.9  81.0
##  3  96.5  99.2
##  4  94.8 116. 
##  5 102.  103. 
##  6 104.  113. 
##  7 122.  139. 
##  8  99.8 106. 
##  9 109.  113. 
## 10 103.  118. 
## # … with 90 more rows
## 
## $test
…
out[[1]]

## $data
## # A tibble: 100 × 2
##        x     y
##    <dbl> <dbl>
##  1  93.2 100. 
##  2  78.9  81.0
##  3  96.5  99.2
##  4  94.8 116. 
##  5 102.  103. 
##  6 104.  113. 
##  7 122.  139. 
##  8  99.8 106. 
##  9 109.  113. 
## 10 103.  118. 
## # … with 90 more rows
## 
## $test
## # A tibble: 1 × 11
##   estimate estimate1 estimate2 statistic    p.value parameter conf.low conf.high
##      <dbl>     <dbl>     <dbl>     <dbl>      <dbl>     <dbl>    <dbl>     <dbl>
## 1    -9.86      101.      110.     -4.63 0.00000665      193.    -14.1     -5.66
## # … with 3 more variables: method <chr>, alternative <chr>, signif <chr>

out[[9]]

## $data
## # A tibble: 100 × 2
##        x     y
##    <dbl> <dbl>
##  1 106.  130. 
##  2 106.   82.7
##  3 112.  111. 
##  4  85.9  80.0
##  5  84.8  95.1
##  6 112.  113. 
##  7  59.7  95.8
##  8  93.8  91.4
##  9  97.8  85.7
## 10  74.7 118. 
## # … with 90 more rows
## 
## $test
…
